{
    "name": "Unity.uleed.settings",
    "rootNamespace": "",
    "references": [
        "GUID:422f4a660843a5745b3fd3004149ce0c"
    ],
    "includePlatforms": [],
    "excludePlatforms": [],
    "allowUnsafeCode": false,
    "overrideReferences": false,
    "precompiledReferences": [],
    "autoReferenced": true,
    "defineConstraints": [],
    "versionDefines": [],
    "noEngineReferences": false
}